%YAML 1.1
%TAG !u! tag:unity3d.com,2011:
--- !u!1045 &1
EditorBuildSettings:
  m_ObjectHideFlags: 0
  serializedVersion: 2
  m_Scenes:
  - enabled: 1
    path: Assets/Scene/MENU.unity
  - enabled: 1
    path: Assets/Scene/Worlds/World1.unity
  - enabled: 1
    path: Assets/Scene/Worlds/World2.unity
  - enabled: 1
    path: Assets/Scene/Worlds/World3.unity
  - enabled: 1
    path: Assets/Scene/Worlds/World4.unity
  - enabled: 1
    path: Assets/Scene/Levels/Forest/Tutorial 1.unity
  - enabled: 1
    path: Assets/Scene/Levels/Forest/Tutorial 02.unity
  - enabled: 1
    path: Assets/Scene/Levels/Forest/Tutorial 03.unity
  - enabled: 1
    path: Assets/Scene/Levels/Forest/Tutorial 04.unity
  - enabled: 1
    path: Assets/Scene/Levels/Forest/Level 06.unity
  - enabled: 1
    path: Assets/Scene/Levels/Forest/Level 07.unity
  - enabled: 1
    path: Assets/Scene/Levels/Forest/Level 08.unity
  - enabled: 1
    path: Assets/Scene/Levels/Forest/Level 09.unity
  - enabled: 1
    path: Assets/Scene/Levels/Factory/Level 9.unity
  - enabled: 1
    path: Assets/Scene/Levels/Factory/Level 10.unity
  - enabled: 1
    path: Assets/Scene/Levels/Factory/Level 11.unity
  - enabled: 1
    path: Assets/Scene/Levels/Factory/Level 12.unity
  - enabled: 1
    path: Assets/Scene/Levels/Factory/Level 13.unity
  - enabled: 1
    path: Assets/Scene/Levels/Factory/Level 14.unity
  - enabled: 1
    path: Assets/Scene/Levels/Factory/Level 15.unity
  - enabled: 1
    path: Assets/Scene/Levels/Factory/Level 16.unity
  - enabled: 1
    path: Assets/Scene/Levels/Bank/Level 17.unity
  - enabled: 1
    path: Assets/Scene/Levels/Bank/Level 18.unity
  - enabled: 1
    path: Assets/Scene/Levels/Bank/Level 19.unity
  - enabled: 1
    path: Assets/Scene/Levels/Bank/Level 20.unity
  - enabled: 1
    path: Assets/Scene/Levels/Bank/Level 21.unity
  - enabled: 1
    path: Assets/Scene/Levels/Bank/Level 22.unity
  - enabled: 1
    path: Assets/Scene/Levels/Bank/Level 23-alt.unity
  - enabled: 1
    path: Assets/Scene/Levels/Bank/Level 24.unity
