%YAML 1.1
%TAG !u! tag:unity3d.com,2011:
--- !u!78 &1
TagManager:
  serializedVersion: 2
  tags: []
  layers:
  - Default
  - TransparentFX
  - Ignore Raycast
  - 
  - Water
  - UI
  - 
  - 
  - ShadowLayer
  - Wall
  - Enemy
  - Player
  - PatrolPoint
  - FadeCam
  - Door
  - BearBlocker
  - Player
  - HidingSpot
  - Notification
  - 
  - 
  - 
  - 
  - 
  - 
  - 
  - 
  - 
  - 
  - 
  - 
  - 
  m_SortingLayers:
  - name: Default
    uniqueID: 0
    locked: 0
  - name: Notification
    uniqueID: 16731893
    locked: 0
